%YAML 1.1
%TAG !u! tag:unity3d.com,2011:
--- !u!114 &11400000
MonoBehaviour:
  m_ObjectHideFlags: 0
  m_CorrespondingSourceObject: {fileID: 0}
  m_PrefabInstance: {fileID: 0}
  m_PrefabAsset: {fileID: 0}
  m_GameObject: {fileID: 0}
  m_Enabled: 1
  m_EditorHideFlags: 0
  m_Script: {fileID: 11500000, guid: ee7c486f7d12844f88fc1e20509a6b41, type: 3}
  m_Name: StartingState
  m_EditorClassIdentifier: 
  storyText: "Alarms are sounding. We must have hit something.\nBut what is there
    to hit out here in the vast emptyness. The door is locked.\n\nI could try to pry
    it open. Or hack the control panel. \n\nWhat should I do?\n1. Find something and
    pry the door.\n2. Hack the control panel?"
